2020.09.21 12:38:24 INFO  started: Metals version 0.9.3 in workspace 'D:\reactJS\news-app' for client vscode.
2020.09.21 12:38:25 INFO  time: initialize in 1.22s
2020.09.21 12:38:27 WARN  no build tool detected in workspace 'D:\reactJS\news-app'. The most common cause for this problem is that the editor was opened in the wrong working directory, for example if you use sbt then the workspace directory should contain build.sbt. 
2020.09.21 12:51:43 INFO  shutting down Metals
2020.11.12 15:31:31 INFO  Started: Metals version 0.9.5 in workspace 'D:\2019-2020\reactJS\news-app' for client vscode.
2020.11.12 15:31:33 INFO  time: initialize in 2.47s
2020.11.12 15:31:38 WARN  Build server is not auto-connectable.
2020.11.12 15:31:38 WARN  no build tool detected in workspace 'D:\2019-2020\reactJS\news-app'. The most common cause for this problem is that the editor was opened in the wrong working directory, for example if you use sbt then the workspace directory should contain build.sbt. 
2020.11.18 12:54:44 INFO  Started: Metals version 0.9.5 in workspace 'D:\2019-2020\reactJS\news-app' for client vscode.
2020.11.18 12:54:46 INFO  time: initialize in 2s
2020.11.18 12:54:54 WARN  Build server is not auto-connectable.
2020.11.18 12:54:54 WARN  no build tool detected in workspace 'D:\2019-2020\reactJS\news-app'. The most common cause for this problem is that the editor was opened in the wrong working directory, for example if you use sbt then the workspace directory should contain build.sbt. 
2020.11.18 14:03:53 INFO  shutting down Metals
